{
    "object_kind": "push",
    "event_name": "push",
    "before": "bf2f51bf21301e11b3b9388d11ca9297ea17175e",
    "after": "2309970d782e7a8c8eb6c80441b7a26c8beb241f",
    "ref": "refs/heads/master",
    "ref_protected": true,
    "checkout_sha": "2309970d782e7a8c8eb6c80441b7a26c8beb241f",
    "message": null,
    "user_id": 26385374,
    "user_name": "dell pc",
    "user_username": "project_27863205_bot_78d5d72f7c4c64e4e2f0be016a26ea4c",
    "user_email": null,
    "user_avatar": "https://secure.gravatar.com/avatar/99da9d142039395c6487fb0a8a1bb9a1e4389f84bd62dcde8970ad9f5beb5417?s=80&d=identicon",
    "project_id": 27863205,
    "project": {
        "id": 27863205,
        "name": "CRUD_by_les_2pro",
        "description": "realisation du CRUD",
        "web_url": "https://gitlab.com/kevindeffo/crud_by_les_2pro",
        "avatar_url": null,
        "git_ssh_url": "git@gitlab.com:kevindeffo/crud_by_les_2pro.git",
        "git_http_url": "https://gitlab.com/kevindeffo/crud_by_les_2pro.git",
        "namespace": "KEVIN DEFFO",
        "visibility_level": 20,
        "path_with_namespace": "kevindeffo/crud_by_les_2pro",
        "default_branch": "master",
        "ci_config_path": "",
        "homepage": "https://gitlab.com/kevindeffo/crud_by_les_2pro",
        "url": "git@gitlab.com:kevindeffo/crud_by_les_2pro.git",
        "ssh_url": "git@gitlab.com:kevindeffo/crud_by_les_2pro.git",
        "http_url": "https://gitlab.com/kevindeffo/crud_by_les_2pro.git"
    },
    "commits": [
        {
            "id": "2309970d782e7a8c8eb6c80441b7a26c8beb241f",
            "message": "add VSCode settings for Jira plugin configuration\n",
            "title": "add VSCode settings for Jira plugin configuration",
            "timestamp": "2025-02-26T15:17:37+01:00",
            "url": "https://gitlab.com/kevindeffo/crud_by_les_2pro/-/commit/2309970d782e7a8c8eb6c80441b7a26c8beb241f5",
            "author": {
                "name": "Kevin Deffo pierre",
                "email": "deffo.codevigor@gmail.com"
            },
            "added": [
                ".vscode/settings.json"
            ],
            "modified": [],
            "removed": []
        }
    ],
    "total_commits_count": 1,
    "push_options": {},
    "repository": {
        "name": "CRUD_by_les_2pro",
        "url": "git@gitlab.com:kevindeffo/crud_by_les_2pro.git",
        "description": "realisation du CRUD",
        "homepage": "https://gitlab.com/kevindeffo/crud_by_les_2pro",
        "git_http_url": "https://gitlab.com/kevindeffo/crud_by_les_2pro.git",
        "git_ssh_url": "git@gitlab.com:kevindeffo/crud_by_les_2pro.git",
        "visibility_level": 20
    }
}